…
``` r
output = vector("list", length = 500)

for (i in 1:500) {
  
  output[[i]] = sim_regression(n_subj = 30)
  
}

output |> 
  bind_rows()
```

    ## # A tibble: 500 × 2
    ##    beta0_hat beta1_hat
    ##        <dbl>     <dbl>
    ##  1      2.14      3.08
    ##  2      1.85      3.37
    ##  3      2.26      2.75
    ##  4      2.01      3.00
    ##  5      2.39      2.88
    ##  6      2.05      3.02
    ##  7      2.02      2.95
    ##  8      1.88      3.09
    ##  9      2.13      3.01
    ## 10      1.74      3.12
    ## # ℹ 490 more rows
…
